{
    "data": {
      "status": "success",
      "phases": [
        {
          "phase": "FE",
          "status": "NA",
          "treemapData": [
            {
                "name": "Merck",
                "value": 3,
                "color": "#00867b"
            },
            {
                "name": "Distributor",
                "value": 3,
                "color": "#175e99"
            },
            {
                "name": "Dispenser",
                "value": 3,
                "color": "#2e9452"
            }
          ]
        }
     ]    
    }  
  }