{     
  "content":{
     "current_product_level" : {
        "process_status":{
          "merck":"bg-thgreen",
          "distributor":"bg-blue",
          "dispenser":"bg-green"
        },
        "products" : [
          {"label":"Brand X", "key":"brand_a"}
        ],
        "types":[
          {"label":"10 mL vial", "key":"10_ml_vial"},
          {"label":"20 mL vial", "key":"20_ml_vial"}
        ],
        "batches":[
          {"label":"Batch A", "key":"batch_a"},
          {"label":"Batch B", "key":"batch_b"},
          {"label":"Batch C", "key":"batch_c"},
          {"label":"Batch D", "key":"batch_d"}
        ],
        "chartData":{
            "treemapData" : [
                {   
                    "id":"21",
                    "name": "Merck",
                    "value": 4000,
                    "color": "#00867b"
                },
                {   "id":"22",
                    "name": "Distributor",
                    "value": 1300,
                    "color": "#175e99"
                },
                {   "id":"23",
                    "name": "Dispenser",
                    "value": 1211,
                    "color": "#2e9452"
                }
            ]
        }
    },
    "production_distribution":{
        "process_status":{
          "merck":"bg-thgreen",
          "distributor":"bg-blue",
          "dispenser":"bg-green"
        },
        "products" : [
          {"label":"Brand X", "key":"brand_a"}
        ],
        "types":[
          {"label":"10 mL vial", "key":"10_ml_vial"},
          {"label":"20 mL vial", "key":"20_ml_vial"}
        ],
        "batches":[
          {"label":"Batch A", "key":"batch_a"},
          {"label":"Batch B", "key":"batch_b"},
          {"label":"Batch C", "key":"batch_c"},
          {"label":"Batch D", "key":"batch_d"}
        ],
        "chartData":{
            "stack_chart" : [
                {
                  "distributor":{
                    "key":"b",
                    "value":[3],
                    "CurrentValue":"W3",
                    "color": "#d23714"
                  }
                },
                {
                  "distributor":{
                    "key":"d",
                    "value":[1],
                    "CurrentValue":"W1",
                    "color": "#1d2a33"
                  }
                },
                {
                  "distributor":{
                    "key":"a",
                    "value":[1],
                    "CurrentValue":"W1",
                    "color": "#00867b"
                  }
                },
                {
                  "distributor":{
                    "key":"a",
                    "value":[1],
                    "CurrentValue":"W1",
                    "color": "#1d2a33"
                  }
                },
                {
                  "distributor":{
                    "key":"c",
                    "value":[2],
                    "CurrentValue":"W2",
                    "color": "#175e99"
                  }
                },
                {
                  "distributor":{
                    "key":"a",
                    "value":[1],
                    "CurrentValue":"W1",
                    "color": "#1d2a33"
                  }
                },
                {
                  "distributor":{
                    "key":"b",
                    "value":[3],
                    "CurrentValue":"W3",
                    "color": "#de7f02"
                  }
                }
            ]
        }
    },
    "alerts_notifications":{
        "notification_type":"Alerts &",
        "notication_count": "14",
        "notifications": [
        {
            "notification_desc": "Verification Failure:Product A",
            "date": "02.12.18",
            "status": "code_red",
            "notification_id": "238",
            "action":true
        },
        {
            "notification_desc": "Channel performance alert:Product B",
            "date": "02.11.18",
            "status": "code_yellow",
            "notification_id": "239",
            "action":true
        },
        {
            "notification_desc": "Shipment failure:Product C",
            "date": "02.11.18",
            "status": "code_red",
            "notification_id": "240",
            "action":true
        },
        {
            "notification_desc": "Notice:other notification",
            "date": "02.11.18",
            "status": "code_green",
            "notification_id": "241",
            "action":true
        }
      ]
    }
  }  
}