{   
    "content":{
        "readdata" :{
            "notification_type":"Read",
            "notication_count": "34",
            "notifications": [
              {
                "notification_desc": "Verification Failure:Product A",
                "date": "02.12.18",
                "status": "code_red",
                "notification_id": "234",
                "action":true
              },
              {
                "notification_desc": "Channel performance alert:Product B",
                "date": "02.11.18",
                "status": "code_yellow",
                "notification_id": "235",
                "action":true
              },
              {
                "notification_desc": "Shipment failure:Product C",
                "date": "02.11.18",
                "status": "code_red",
                "notification_id": "236",
                "action":true
              },
              {
                "notification_desc": "Notice:other notification",
                "date": "02.11.18",
                "status": "code_green",
                "notification_id": "237",
                "action":true
              }
            ]
          },
          "unreaddata":{
            "notification_type":"Unread",
            "notication_count": "14",
            "notifications": [
              {
                "notification_desc": "Verification Failure:Product A",
                "date": "02.12.18",
                "status": "code_red",
                "notification_id": "238",
                "action":true
              },
              {
                "notification_desc": "Channel performance alert:Product B",
                "date": "02.11.18",
                "status": "code_yellow",
                "notification_id": "239",
                "action":true
              },
              {
                "notification_desc": "Shipment failure:Product C",
                "date": "02.11.18",
                "status": "code_red",
                "notification_id": "240",
                "action":true
              },
              {
                "notification_desc": "Notice:other notification",
                "date": "02.11.18",
                "status": "code_green",
                "notification_id": "241",
                "action":true
              }
            ]
          }
    }
  }