{
    "metaData":{
      "auditor":"",
      "currentStation":"",
      "currentGrade":"A",
      "requiredGrade":"A3",
      "requiredWeight":84,
      "destination":763.12
    },
    "location_list":[
        { 
          "lat":2323.3223,
          "long":732.2367,
          "station_info":{
            "station_name":"",
            "station_code":""
          },
          "timestamp":""
        },
        { 
          "lat":2323.3223,
          "long":732.2367,
          "station_info":{
            "station_name":"",
            "station_code":""
          },
          "timestamp":""
        },
        { 
          "lat":2323.3223,
          "long":732.2367,
          "station_info":{
            "station_name":"",
            "station_code":""
          },
          "timestamp":""
        }
     ],
    "weight_list":[
       {
         "lat":2323.3223,
         "long":732.2367,
         "station_info":{
            "station_name":"rewari ",
            "station_code":"RWI"
         },
         "timestamp":"23-21-2010 12:11:21",
         "current_weight":85
       },
       {
        "lat":2323.3223,
        "long":732.2367,
        "station_info":{
           "station_name":"Alwar",
           "station_code":"AWR"
        },
        "timestamp":"23-21-2010 12:11:21",
        "current_weight":54
      },
       {
         "lat":2323.3223,
          "long":732.2367,
          "station_info":{
            "station_name":"Jaipur",
            "station_code":"JPR"
          },
          "timestamp":"23-21-2010 12:11:21",
          "current_weight":86
       },
       {
        "lat":2323.3223,
         "long":732.2367,
         "station_info":{
           "station_name":"Jaipur",
           "station_code":"JPR"
         },
         "timestamp":"23-21-2010 12:11:21",
         "current_weight":52
      },
      {
        "lat":2323.3223,
         "long":732.2367,
         "station_info":{
           "station_name":"Jaipur",
           "station_code":"JPR"
         },
         "timestamp":"23-21-2010 12:11:21",
         "current_weight":22
      },
      {
        "lat":2323.3223,
         "long":732.2367,
         "station_info":{
           "station_name":"Jaipur",
           "station_code":"JPR"
         },
         "timestamp":"23-21-2010 12:11:21",
         "current_weight":42
      },
      {
        "lat":2323.3223,
         "long":732.2367,
         "station_info":{
           "station_name":"Jaipur",
           "station_code":"JPR"
         },
         "timestamp":"23-21-2010 12:11:21",
         "current_weight":92
      },
      {
        "lat":2323.3223,
         "long":732.2367,
         "station_info":{
           "station_name":"Jaipur",
           "station_code":"JPR"
         },
         "timestamp":"23-21-2010 12:11:21",
         "current_weight":22
      }
    ]
  }