{
    "treemapData" :[
    {   
        "id":"21",
        "name": "Merck",
        "value": 4000,
        "color": "#00867b"
    },
    {   
        "id":"22",
        "name": "Distributor",
        "value": 1300,
        "color": "#175e99"
    },
    {   
        "id":"23",
        "name": "Dispenser",
        "value": 1211,
        "color": "#2e9452"
    }
  ]
}