{
  "apiversion": "1.0",
  "code": 200,
  "status": "OK",
  "message": "OK",
  "content": {
    "correlationChartXLabel": [
      "03/01/2016",
      "04/01/2016",
      "05/01/2016",
      "06/01/2016",
      "07/01/2016",
      "08/01/2016",
      "09/01/2016",
      "10/01/2016",
      "11/01/2016",
      "12/01/2016",
      "01/01/2017",
      "02/01/2017"
    ],
    "correlationChartMileStones": [
      {
        "value": 2,
        "label": "P1PRO"
      },
      {
        "value": 3,
        "label": "P2PRO"
      },
      {
        "value": 6,
        "label": "P3PRO"
      },
      {
        "value": 7,
        "label": "BTO"
      },
      {
        "value": 10,
        "label": "MTO"
      }
    ],
    "correlationChartEvents": {
      "headerContents": [
        {
          "key": "type",
          "name": "Event Type"
        },
        {
          "key": "details",
          "name": "Event Details"
        },
        {
          "key": "user",
          "name": "User"
        },
        {
          "key": "date",
          "name": "Event Date"
        }
      ],
      "bodyContents": [
        {
          "id": "event_1",
          "type": "Risk",
          "label": "X",
          "user": "schittil",
          "date": "04/01/2016",
          "details": "Delay in release for the system.To ensure adequate testing, they must clearly communicate with project leaders the testing scope, testing plans, and risks involved."
        },
        {
          "id": "event_2",
          "type": "Release",
          "label": "R",
          "user": "rdas",
          "date": "05/01/2016",
          "details": "Second phase release "
        },
        {
          "id": "event_3",
          "type": "Risk",
          "label": "X",
          "user": "kerby",
          "date": "07/01/2016",
          "details": "The release delayed for the application. It cannot elaborate on the bug, nor on the length of the delay."
        },
        {
          "id": "event_4",
          "type": "Other",
          "label": "O",
          "user": "jon",
          "date": "10/01/2016",
          "details": "Cost increased for the development process. App development with the help of cross-platform solutions can also reduce a final price, but together with it the quality will also be lower. "
        }
      ]
    },
    "metricsFilter": {
      "projects": [
        {
          "key": "Nazgul.v1",
          "name": "Nazgul.v1"
        },
        {
          "key": "Nazgul.v2",
          "name": "Nazgul.v2"
        },
        {
          "key": "Nazgul.v3",
          "name": "Nazgul.v3"
        },
        {
          "key": "Nazgul.v4",
          "name": "Nazgul.v4"
        },
        {
          "key": "Nazgul.v5",
          "name": "Nazgul.v5"
        },
        {
          "key": "Nazgul.v6",
          "name": "Nazgul.v6"
        }
      ],
      "components": [
        {
          "key": "GPU",
          "name": "GPU"
        },
        {
          "key": "CPU",
          "name": "CPU"
        },
        {
          "key": "Camera",
          "name": "Camera"
        },
        {
          "key": "Modem",
          "name": "Modem"
        },
        {
          "key": "Venus",
          "name": "Venus"
        },
        {
          "key": "WCSS",
          "name": "WCSS"
        }
      ],
      "metrics": [
        {
          "key": "RUN_TIME",
          "name": "RUN_TIME",
          "unit": "sec",
          "data": [
            {
              "y": 43934
            },
            {
              "y": 52503
            },
            {
              "y": 57177
            },
            {
              "y": 69658
            },
            {
              "y": 97031
            },
            {
              "y": 119931
            },
            {
              "y": 137133
            },
            {
              "y": 154175
            },
            {
              "y": 184175
            },
            {
              "y": 173133
            },
            {
              "y": 151000
            },
            {
              "y": 164175
            }
          ]
        },
        {
          "key": "MEMORY_FOOTPRINT_GB",
          "name": "MEMORY_FOOTPRINT_GB",
          "unit": "GB",
          "data": [
            {
              "y": 144916
            },
            {
              "y": 124064
            },
            {
              "y": 109742
            },
            {
              "y": 69851
            },
            {
              "y": 52490
            },
            {
              "y": 40282
            },
            {
              "y": 33121
            },
            {
              "y": 25434
            },
            {
              "y": 25434
            },
            {
              "y": 33121
            },
            {
              "y": 25434
            },
            {
              "y": 25434
            }
          ]
        },
        {
          "key": "SILICON_UTILIZATION_PCT",
          "name": "SILICON_UTILIZATION_PCT",
          "unit": "%",
          "data": [
            {
              "y": 97031
            },
            {
              "y": 119931
            },
            {
              "y": 137133
            },
            {
              "y": 154175
            },
            {
              "y": 143934
            },
            {
              "y": 122503
            },
            {
              "y": 57177
            },
            {
              "y": 69658
            },
            {
              "y": 69658
            },
            {
              "y": 57177
            },
            {
              "y": 69658
            },
            {
              "y": 69658
            }
          ]
        },
        {
          "key": "INST_COUNT",
          "name": "INST_COUNT",
          "unit": "",
          "data": [
            {
              "y": 191446
            },
            {
              "y": 164240
            },
            {
              "y": 174092
            },
            {
              "y": 119851
            },
            {
              "y": 152490
            },
            {
              "y": 100282
            },
            {
              "y": 83121
            },
            {
              "y": 5434
            },
            {
              "y": 25434
            },
            {
              "y": 33121
            },
            {
              "y": 65434
            },
            {
              "y": 95434
            }
          ]
        },
        {
          "key": "SETUP_NFE",
          "name": "SETUP_NFE",
          "unit": "",
          "data": [
            {
              "y": 37031
            },
            {
              "y": 69931
            },
            {
              "y": 47133
            },
            {
              "y": 54175
            },
            {
              "y": 83934
            },
            {
              "y": 122503
            },
            {
              "y": 107177
            },
            {
              "y": 139658
            },
            {
              "y": 99658
            },
            {
              "y": 75177
            },
            {
              "y": 59658
            },
            {
              "y": 39658
            }
          ]
        },
        {
          "key": "CELL_UTILIZATION_PCT",
          "name": "CELL_UTILIZATION_PCT",
          "unit": "%",
          "data": [
            {
              "y": 44916
            },
            {
              "y": 74064
            },
            {
              "y": 91742
            },
            {
              "y": 99851
            },
            {
              "y": 125490
            },
            {
              "y": 140282
            },
            {
              "y": 133121
            },
            {
              "y": 125434
            },
            {
              "y": 105434
            },
            {
              "y": 83121
            },
            {
              "y": 75434
            },
            {
              "y": 65434
            }
          ]
        },
        {
          "key": "MACRO_COUNT",
          "name": "MACRO_COUNT",
          "unit": "",
          "data": [
            {
              "y": 197031
            },
            {
              "y": 189931
            },
            {
              "y": 171333
            },
            {
              "y": 164175
            },
            {
              "y": 143934
            },
            {
              "y": 122503
            },
            {
              "y": 117177
            },
            {
              "y": 109658
            },
            {
              "y": 89658
            },
            {
              "y": 57177
            },
            {
              "y": 42658
            },
            {
              "y": 29658
            }
          ]
        },
        {
          "key": "FLOP_COUNT",
          "name": "FLOP_COUNT",
          "unit": "",
          "data": [
            {
              "y": 17031
            },
            {
              "y": 129931
            },
            {
              "y": 113773
            },
            {
              "y": 143175
            },
            {
              "y": 130934
            },
            {
              "y": 112503
            },
            {
              "y": 97177
            },
            {
              "y": 89658
            },
            {
              "y": 59658
            },
            {
              "y": 77177
            },
            {
              "y": 99658
            },
            {
              "y": 129658
            }
          ]
        }
      ]
    }
  }
}