{   
   "content":{
          "incoming_shipments":{
        "headerContent":[
            {
              "label":"PRODUCT",
              "key":"product"
            },
            {
              "label":"GTIN",
              "key":"gtin"
            },
            {
              "label":"STATUS",
              "key":"status"
            },      
            {
              "label":"SHIP DATE",
              "key":"ship_date"
            }
          ],
          "bodyContent":[
            {
              "product":"Brand X",
              "gtin":"0030001222014",
              "status":"Shipped",
              "ship_date":"02.15.2018"
            },
            {
              "product":"Brand X",
              "gtin":"0030001222014",
              "status":"Shipped",
              "ship_date":"02.15.2018"
            },
            {
              "product":"Brand X",
              "gtin":"0030001222014",
              "status":"Shipped",
              "ship_date":"02.15.2018"
            },
            {
              "product":"Brand X",
              "gtin":"0030001222014",
              "status":"Shipped",
              "ship_date":"02.15.2018"
            }
          ]
    },
    "verification_data" : {
        "headerContent":[
          {
            "label":"PRODUCT",
            "key":"product"
          },
          {
            "label":"GTIN",
            "key":"gtin"
          },
          {
            "label":"S/N",
            "key":"sn"
          },
          {
            "label":"LOT",
            "key":"lot"
          },
          {
            "label":"VERIFICATION STATUS",
            "key":"verification_status"
          },
          {
            "label":"SHIP STATUS",
            "key":"ship_status"
          },
          {
            "label":"SHIP IN DATE",
            "key":"ship_in_date"
          },
          {
            "label":"DISPENSE DATE",
            "key":"dispense_date"
          }
        ],
        "bodyContent":[
          {
            "product":"Brand X",
            "gtin":"0030001222014",
            "sn":"582529093459",
            "lot":"A100111",
            "verification_status":"Verified",
            "ship_status":"Shipped",
            "ship_in_date":"02.12.2018",
            "dispense_date":"02.20.2018"
          },
          {
            "product":"Brand X",
            "gtin":"0030001222014",
            "sn":"597917958006",
            "lot":"A100111",
            "verification_status":"Verified",
            "ship_status":"Shipped",
            "ship_in_date":"02.12.2018",
            "dispense_date":"02.20.2018"
          },
          {
            "product":"Brand X",
            "gtin":"0030001222014",
            "sn":"598705573078",
            "lot":"A100111",
            "verification_status":"Verified",
            "ship_status":"Shipped",
            "ship_in_date":"02.12.2018",
            "dispense_date":"02.20.2018"
          },
          {
            "product":"Brand X",
            "gtin":"0030001222014",
            "sn":"130734180840",
            "lot":"A100111",
            "verification_status":"Verified",
            "ship_status":"Shipped",
            "ship_in_date":"02.12.2018",
            "dispense_date":"02.20.2018"
          },
          {
            "product":"Brand X",
            "gtin":"0030001222014",
            "sn":"593831182414",
            "lot":"A100111",
            "verification_status":"Verified",
            "ship_status":"Shipped",
            "ship_in_date":"02.12.2018",
            "dispense_date":"02.20.2018"
          },
          {
            "product":"Brand X",
            "gtin":"0030001222014",
            "sn":"473587995481",
            "lot":"A100111",
            "verification_status":"Verified",
            "ship_status":"Shipped",
            "ship_in_date":"02.12.2018",
            "dispense_date":"02.20.2018"
          },
          {
            "product":"Brand X",
            "gtin":"0030001222014",
            "sn":"329065958555",
            "lot":"A100111",
            "verification_status":"Verified",
            "ship_status":"Shipped",
            "ship_in_date":"02.12.2018",
            "dispense_date":"02.20.2018"
          },
          {
            "product":"Brand X",
            "gtin":"0030001222014",
            "sn":"201597502117",
            "lot":"A100111",
            "verification_status":"Verified",
            "ship_status":"Shipped",
            "ship_in_date":"02.12.2018",
            "dispense_date":"02.20.2018"
          }
        ]
    },
    "alerts_notifications":{
        "notification_type":"Alerts &",
        "notication_count": "14",
        "notifications": [
        {
            "notification_desc": "Verification Failure:Product A",
            "date": "02.12.18",
            "status": "code_red",
            "notification_id": "238",
            "action":true
        },
        {
            "notification_desc": "Channel performance alert:Product B",
            "date": "02.11.18",
            "status": "code_yellow",
            "notification_id": "239",
            "action":true
        },
        {
            "notification_desc": "Shipment failure:Product C",
            "date": "02.11.18",
            "status": "code_red",
            "notification_id": "240",
            "action":true
        },
        {
            "notification_desc": "Notice:other notification",
            "date": "02.11.18",
            "status": "code_green",
            "notification_id": "241",
            "action":true
        }
      ]
    }
    }  
}