{
  "content":{
    "headerContent":[
      {
        "key":"product",
        "label":"PRODUCT"
      },
      {
        "key":"gtin",
        "label":"GTIN"
      },
      {
        "key":"sn",
        "label":"S/N"
      },
      {
        "key":"lot",
        "label":"LOT"
      },
      {
        "key":"state",
        "label":"STATE"
      },
      {
       "key":"location",
       "label":"LOCATION"
     },
     {
       "key":"mfg_unit",
       "label":"MFG UNIT"
     },
     {
       "key":"status",
       "label":"STATUS"
     },
     {
       "key":"product_handler",
       "label":"PRODUCT HANDLER"
     },
     {
       "key":"date",
       "label":"DATE"
     }
    ],
    "bodyContent":[
       {
         "product":"Brand X",
         "gtin":"0030001222014",
         "sn":"582529093459",
         "lot":"A100111",
         "state":"NY",
         "location":"New York",
         "mfg_unit":"PA123",
         "status":"Recieved",
         "product_handler":"ABC Warehousing",
         "date":"10.10.16",
         "subRows":[
           {
             "state":"NY",
             "location":"New York",
             "mfg_unit":"PA123",
             "status":"Recieved",
             "product_handler":"ABC Warehousing",
             "date":"10.10.16"
           },
           {
             "state":"NY",
             "location":"New York",
             "mfg_unit":"PA123",
             "status":"Recieved",
             "product_handler":"ABC Warehousing",
             "date":"10.10.16"
           }
         ]
       },
       {
         "product":"Brand X",
         "gtin":"0030001222014",
         "sn":"597917958006",
         "lot":"A100111",
         "state":"NY",
         "location":"New York",
         "mfg_unit":"PA123",
         "status":"Recieved",
         "product_handler":"ABC Warehousing",
         "date":"10.10.16",
         "subRows":[
           {
             "state":"NY",
             "location":"New York",
             "mfg_unit":"PA123",
             "status":"Recieved",
             "product_handler":"ABC Warehousing",
             "date":"10.10.16"
           },
           {
             "state":"NY",
             "location":"New York",
             "mfg_unit":"PA123",
             "status":"Recieved",
             "product_handler":"ABC Warehousing",
             "date":"10.10.16"
           },
           {
             "state":"NY",
             "location":"New York",
             "mfg_unit":"PA123",
             "status":"Recieved",
             "product_handler":"ABC Warehousing",
             "date":"10.10.16"
           },
           {
             "state":"NY",
             "location":"New York",
             "mfg_unit":"PA123",
             "status":"Recieved",
             "product_handler":"ABC Warehousing",
             "date":"10.10.16"
           },
           {
             "state":"NY",
             "location":"New York",
             "mfg_unit":"PA123",
             "status":"Recieved",
             "product_handler":"ABC Warehousing",
             "date":"10.10.16"
           }
         ]
       },
       {
         "product":"Brand X",
         "gtin":"0030001222014",
         "sn":"598705573078",
         "lot":"A100111",
         "state":"NY",
         "location":"New York",
         "mfg_unit":"PA123",
         "status":"Recieved",
         "product_handler":"ABC Warehousing",
         "date":"10.10.16",
         "subRows":[
           {
             "state":"NY",
             "location":"New York",
             "mfg_unit":"PA123",
             "status":"Recieved",
             "product_handler":"ABC Warehousing",
             "date":"10.10.16"
           },
           {
             "state":"NY",
             "location":"New York",
             "mfg_unit":"PA123",
             "status":"Recieved",
             "product_handler":"ABC Warehousing",
             "date":"10.10.16"
           }
         ]
       },
       {
         "product":"Brand X",
         "gtin":"0030001222014",
         "sn":"130734180840",
         "lot":"A100111",
         "state":"NY",
         "location":"New York",
         "mfg_unit":"PA123",
         "status":"Recieved",
         "product_handler":"ABC Warehousing",
         "date":"10.10.16",
         "subRows":[
           {
             "state":"NY",
             "location":"New York",
             "mfg_unit":"PA123",
             "status":"Recieved",
             "product_handler":"ABC Warehousing",
             "date":"10.10.16"
           },
           {
             "state":"NY",
             "location":"New York",
             "mfg_unit":"PA123",
             "status":"Recieved",
             "product_handler":"ABC Warehousing",
             "date":"10.10.16"
           }
         ]
       },
       {
         "product":"Brand X",
         "gtin":"0030001222014",
         "sn":"593831182414",
         "lot":"A100111",
         "state":"NY",
         "location":"New York",
         "mfg_unit":"PA123",
         "status":"Recieved",
         "product_handler":"ABC Warehousing",
         "date":"10.10.16",
         "subRows":[
           {
             "state":"NY",
             "location":"New York",
             "mfg_unit":"PA123",
             "status":"Recieved",
             "product_handler":"ABC Warehousing",
             "date":"10.10.16"
           },
           {
             "state":"NY",
             "location":"New York",
             "mfg_unit":"PA123",
             "status":"Recieved",
             "product_handler":"ABC Warehousing",
             "date":"10.10.16"
           }
         ]
       },
       {
         "product":"Brand X",
         "gtin":"0030001222014",
         "sn":"473587995481",
         "lot":"A100111",
         "state":"NY",
         "location":"New York",
         "mfg_unit":"PA123",
         "status":"Recieved",
         "product_handler":"ABC Warehousing",
         "date":"10.10.16",
         "subRows":[
           {
             "state":"NY",
             "location":"New York",
             "mfg_unit":"PA123",
             "status":"Recieved",
             "product_handler":"ABC Warehousing",
             "date":"10.10.16"
           },
           {
             "state":"NY",
             "location":"New York",
             "mfg_unit":"PA123",
             "status":"Recieved",
             "product_handler":"ABC Warehousing",
             "date":"10.10.16"
           }
         ]
       },
       {
         "product":"Brand X",
         "gtin":"0030001333019",
         "sn":"329065958555",
         "lot":"A100111",
         "state":"NY",
         "location":"New York",
         "mfg_unit":"PA123",
         "status":"Recieved",
         "product_handler":"ABC Warehousing",
         "date":"10.10.16",
         "subRows":[
           {
             "state":"NY",
             "location":"New York",
             "mfg_unit":"PA123",
             "status":"Recieved",
             "product_handler":"ABC Warehousing",
             "date":"10.10.16"
           },
           {
             "state":"NY",
             "location":"New York",
             "mfg_unit":"PA123",
             "status":"Recieved",
             "product_handler":"ABC Warehousing",
             "date":"10.10.16"
           }
         ]
       },
       {
         "product":"Brand X",
         "gtin":"0030001333019",
         "sn":"201597502117",
         "lot":"A100111",
         "state":"NY",
         "location":"New York",
         "mfg_unit":"PA123",
         "status":"Recieved",
         "product_handler":"ABC Warehousing",
         "date":"10.10.16",
         "subRows":[
           {
             "state":"NY",
             "location":"New York",
             "mfg_unit":"PA123",
             "status":"Recieved",
             "product_handler":"ABC Warehousing",
             "date":"10.10.16"
           },
           {
             "state":"NY",
             "location":"New York",
             "mfg_unit":"PA123",
             "status":"Recieved",
             "product_handler":"ABC Warehousing",
             "date":"10.10.16"
           }
         ]
       },
       {
         "product":"Brand X",
         "gtin":"0030001333019",
         "sn":"301598120404",
         "lot":"A100111",
         "state":"NY",
         "location":"New York",
         "mfg_unit":"PA123",
         "status":"Recieved",
         "product_handler":"ABC Warehousing",
         "date":"10.10.16",
         "subRows":[
           {
             "state":"NY",
             "location":"New York",
             "mfg_unit":"PA123",
             "status":"Recieved",
             "product_handler":"ABC Warehousing",
             "date":"10.10.16"
           },
           {
             "state":"NY",
             "location":"New York",
             "mfg_unit":"PA123",
             "status":"Recieved",
             "product_handler":"ABC Warehousing",
             "date":"10.10.16"
           }
         ]
       },
       {
         "product":"Brand X",
         "gtin":"0030001333019",
         "sn":"698502411847",
         "lot":"A100111",
         "state":"NY",
         "location":"New York",
         "mfg_unit":"PA123",
         "status":"Recieved",
         "product_handler":"ABC Warehousing",
         "date":"10.10.16",
         "subRows":[
           {
             "state":"NY",
             "location":"New York",
             "mfg_unit":"PA123",
             "status":"Recieved",
             "product_handler":"ABC Warehousing",
             "date":"10.10.16"
           },
           {
             "state":"NY",
             "location":"New York",
             "mfg_unit":"PA123",
             "status":"Recieved",
             "product_handler":"ABC Warehousing",
             "date":"10.10.16"
           }
         ]
       },
       {
         "product":"Brand X",
         "gtin":"0030001333019",
         "sn":"717140648957",
         "lot":"A100111",
         "state":"NY",
         "location":"New York",
         "mfg_unit":"PA123",
         "status":"Recieved",
         "product_handler":"ABC Warehousing",
         "date":"10.10.16",
         "subRows":[
           {
             "state":"NY",
             "location":"New York",
             "mfg_unit":"PA123",
             "status":"Recieved",
             "product_handler":"ABC Warehousing",
             "date":"10.10.16"
           },
           {
             "state":"NY",
             "location":"New York",
             "mfg_unit":"PA123",
             "status":"Recieved",
             "product_handler":"ABC Warehousing",
             "date":"10.10.16"
           }
         ]
       },
       {
         "product":"Brand X",
         "gtin":"0030001333019",
         "sn":"990114652171",
         "lot":"A100111",
         "state":"NY",
         "location":"New York",
         "mfg_unit":"PA123",
         "status":"Recieved",
         "product_handler":"ABC Warehousing",
         "date":"10.10.16",
         "subRows":[
           {
             "state":"NY",
             "location":"New York",
             "mfg_unit":"PA123",
             "status":"Recieved",
             "product_handler":"ABC Warehousing",
             "date":"10.10.16"
           },
           {
             "state":"NY",
             "location":"New York",
             "mfg_unit":"PA123",
             "status":"Recieved",
             "product_handler":"ABC Warehousing",
             "date":"10.10.16"
           }
         ]
       },
       {
         "product":"Brand X",
         "gtin":"0030001333019",
         "sn":"990114652171",
         "lot":"A100111",
         "state":"NY",
         "location":"New York",
         "mfg_unit":"PA123",
         "status":"Recieved",
         "product_handler":"ABC Warehousing",
         "date":"10.10.16",
         "subRows":[
           {
             "state":"NY",
             "location":"New York",
             "mfg_unit":"PA123",
             "status":"Recieved",
             "product_handler":"ABC Warehousing",
             "date":"10.10.16"
           },
           {
             "state":"NY",
             "location":"New York",
             "mfg_unit":"PA123",
             "status":"Recieved",
             "product_handler":"ABC Warehousing",
             "date":"10.10.16"
           },
           {
             "state":"NY",
             "location":"New York",
             "mfg_unit":"PA123",
             "status":"Recieved",
             "product_handler":"ABC Warehousing",
             "date":"10.10.16"
           },
           {
             "state":"NY",
             "location":"New York",
             "mfg_unit":"PA123",
             "status":"Recieved",
             "product_handler":"ABC Warehousing",
             "date":"10.10.16"
           },
           {
             "state":"NY",
             "location":"New York",
             "mfg_unit":"PA123",
             "status":"Recieved",
             "product_handler":"ABC Warehousing",
             "date":"10.10.16"
           },
           {
             "state":"NY",
             "location":"New York",
             "mfg_unit":"PA123",
             "status":"Recieved",
             "product_handler":"ABC Warehousing",
             "date":"10.10.16"
           }
         ]
       }
    ]
  }
}